<svg width="14" height="14" viewBox="0 0 14 14" fill="none" xmlns="http://www.w3.org/2000/svg">
<path fill-rule="evenodd" clip-rule="evenodd" d="M0 4.18478C0 3.80659 0.306588 3.5 0.684783 3.5H9.81522C10.1934 3.5 10.5 3.80659 10.5 4.18478V13.3152C10.5 13.6934 10.1934 14 9.81522 14H0.684783C0.306588 14 0 13.6934 0 13.3152V4.18478ZM1.36957 4.86957V12.6304H9.13043V4.86957H1.36957Z" fill="#40B5AE"/>
<path fill-rule="evenodd" clip-rule="evenodd" d="M3.5 0.684783C3.5 0.306588 3.80659 0 4.18478 0H13.3152C13.6934 0 14 0.306588 14 0.684783V9.81522C14 10.1934 13.6934 10.5 13.3152 10.5H9.8913C9.51311 10.5 9.20652 10.1934 9.20652 9.81522C9.20652 9.43702 9.51311 9.13043 9.8913 9.13043H12.6304V1.36957H4.86957V4.1087C4.86957 4.48689 4.56298 4.79348 4.18478 4.79348C3.80659 4.79348 3.5 4.48689 3.5 4.1087V0.684783Z" fill="#40B5AE"/>
</svg>
