<svg width="20" height="20" viewBox="0 0 20 20" fill="none" xmlns="http://www.w3.org/2000/svg">
<path fill-rule="evenodd" clip-rule="evenodd" d="M16 3.5H6C5.72386 3.5 5.5 3.72386 5.5 4V14C5.5 14.2761 5.72386 14.5 6 14.5H16C16.2761 14.5 16.5 14.2761 16.5 14V4C16.5 3.72386 16.2761 3.5 16 3.5ZM6 2C4.89543 2 4 2.89543 4 4V14C4 15.1046 4.89543 16 6 16H16C17.1046 16 18 15.1046 18 14V4C18 2.89543 17.1046 2 16 2H6Z" fill="#3B3B3B"/>
<path fill-rule="evenodd" clip-rule="evenodd" d="M9.39611 5.83875C9.63997 5.70823 9.93588 5.72254 10.166 5.87596L13.916 8.37596C14.1247 8.51506 14.25 8.74924 14.25 9C14.25 9.25077 14.1247 9.48494 13.916 9.62404L10.166 12.124C9.93588 12.2775 9.63997 12.2918 9.39611 12.1613C9.15224 12.0307 9 11.7766 9 11.5V6.5C9 6.2234 9.15224 5.96926 9.39611 5.83875ZM10.5 7.90139V10.0986L12.1479 9L10.5 7.90139Z" fill="#3B3B3B"/>
<path fill-rule="evenodd" clip-rule="evenodd" d="M2 4.25C2.41421 4.25 2.75 4.58579 2.75 5V16C2.75 16.6904 3.30964 17.25 4 17.25H15C15.4142 17.25 15.75 17.5858 15.75 18C15.75 18.4142 15.4142 18.75 15 18.75H4C2.48122 18.75 1.25 17.5188 1.25 16V5C1.25 4.58579 1.58579 4.25 2 4.25Z" fill="#3B3B3B"/>
</svg>
