<svg width="20" height="20" viewBox="0 0 20 20" fill="none" xmlns="http://www.w3.org/2000/svg">
<path d="M7.8125 8.125C8.33027 8.125 8.75 7.70527 8.75 7.1875C8.75 6.66973 8.33027 6.25 7.8125 6.25C7.29473 6.25 6.875 6.66973 6.875 7.1875C6.875 7.70527 7.29473 8.125 7.8125 8.125Z" fill="#3B3B3B"/>
<path fill-rule="evenodd" clip-rule="evenodd" d="M3.875 3.875V16.125H16.125V3.875H3.875ZM2.375 3.75C2.375 2.99061 2.99061 2.375 3.75 2.375H16.25C17.0094 2.375 17.625 2.99061 17.625 3.75V16.25C17.625 17.0094 17.0094 17.625 16.25 17.625H3.75C2.99061 17.625 2.375 17.0094 2.375 16.25V3.75Z" fill="#3B3B3B"/>
<path fill-rule="evenodd" clip-rule="evenodd" d="M12.1527 8.66161C12.4106 8.40375 12.7603 8.25888 13.125 8.25888C13.4897 8.25888 13.8394 8.40375 14.0973 8.66161L13.5669 9.19194L14.0973 8.66161L17.4053 11.9697C17.6982 12.2625 17.6982 12.7374 17.4053 13.0303C17.1124 13.3232 16.6375 13.3232 16.3447 13.0303L13.125 9.81066L9.72227 13.2134C9.46441 13.4712 9.11467 13.6161 8.75 13.6161C8.38533 13.6161 8.03559 13.4712 7.77773 13.2134L6.25 11.6857L3.65533 14.2803C3.36244 14.5732 2.88756 14.5732 2.59467 14.2803C2.30178 13.9874 2.30178 13.5126 2.59467 13.2197L5.27772 10.5366L5.79095 11.0498L5.27773 10.5366C5.53559 10.2787 5.88533 10.1339 6.25 10.1339C6.61467 10.1339 6.96441 10.2787 7.22227 10.5366L8.75 12.0643L12.1527 8.66161L12.6831 9.19194L12.1527 8.66161Z" fill="#3B3B3B"/>
</svg>
